%YAML 1.1
%TAG !u! tag:unity3d.com,2011:
--- !u!1001 &8594153216320881938
PrefabInstance:
  m_ObjectHideFlags: 0
  serializedVersion: 2
  m_Modification:
    m_TransformParent: {fileID: 0}
    m_Modifications:
    - target: {fileID: 225749190879684625, guid: 4af204f411edeb8468ec74c98d24d7a1, type: 3}
      propertyPath: m_Name
      value: Door Portrait
      objectReference: {fileID: 0}
    - target: {fileID: 225749190879684625, guid: 4af204f411edeb8468ec74c98d24d7a1, type: 3}
      propertyPath: m_Layer
      value: 16
      objectReference: {fileID: 0}
    - target: {fileID: 225749190879684626, guid: 4af204f411edeb8468ec74c98d24d7a1, type: 3}
      propertyPath: m_RootOrder
      value: 0
      objectReference: {fileID: 0}
    - target: {fileID: 225749190879684626, guid: 4af204f411edeb8468ec74c98d24d7a1, type: 3}
      propertyPath: m_LocalScale.x
      value: 0.7
      objectReference: {fileID: 0}
    - target: {fileID: 225749190879684626, guid: 4af204f411edeb8468ec74c98d24d7a1, type: 3}
      propertyPath: m_LocalScale.y
      value: 0.7
      objectReference: {fileID: 0}
    - target: {fileID: 225749190879684626, guid: 4af204f411edeb8468ec74c98d24d7a1, type: 3}
      propertyPath: m_LocalScale.z
      value: 0.7
      objectReference: {fileID: 0}
    - target: {fileID: 225749190879684626, guid: 4af204f411edeb8468ec74c98d24d7a1, type: 3}
      propertyPath: m_LocalPosition.x
      value: 0
      objectReference: {fileID: 0}
    - target: {fileID: 225749190879684626, guid: 4af204f411edeb8468ec74c98d24d7a1, type: 3}
      propertyPath: m_LocalPosition.y
      value: 0
      objectReference: {fileID: 0}
    - target: {fileID: 225749190879684626, guid: 4af204f411edeb8468ec74c98d24d7a1, type: 3}
      propertyPath: m_LocalPosition.z
      value: 0
      objectReference: {fileID: 0}
    - target: {fileID: 225749190879684626, guid: 4af204f411edeb8468ec74c98d24d7a1, type: 3}
      propertyPath: m_LocalRotation.w
      value: -0.00000090897083
      objectReference: {fileID: 0}
    - target: {fileID: 225749190879684626, guid: 4af204f411edeb8468ec74c98d24d7a1, type: 3}
      propertyPath: m_LocalRotation.x
      value: -0
      objectReference: {fileID: 0}
    - target: {fileID: 225749190879684626, guid: 4af204f411edeb8468ec74c98d24d7a1, type: 3}
      propertyPath: m_LocalRotation.y
      value: 1
      objectReference: {fileID: 0}
    - target: {fileID: 225749190879684626, guid: 4af204f411edeb8468ec74c98d24d7a1, type: 3}
      propertyPath: m_LocalRotation.z
      value: -0
      objectReference: {fileID: 0}
    - target: {fileID: 225749190879684626, guid: 4af204f411edeb8468ec74c98d24d7a1, type: 3}
      propertyPath: m_LocalEulerAnglesHint.x
      value: 0
      objectReference: {fileID: 0}
    - target: {fileID: 225749190879684626, guid: 4af204f411edeb8468ec74c98d24d7a1, type: 3}
      propertyPath: m_LocalEulerAnglesHint.y
      value: 180
      objectReference: {fileID: 0}
    - target: {fileID: 225749190879684626, guid: 4af204f411edeb8468ec74c98d24d7a1, type: 3}
      propertyPath: m_LocalEulerAnglesHint.z
      value: 0
      objectReference: {fileID: 0}
    - target: {fileID: 225749190879684627, guid: 4af204f411edeb8468ec74c98d24d7a1, type: 3}
      propertyPath: automatic
      value: 0
      objectReference: {fileID: 0}
    - target: {fileID: 225749190879684627, guid: 4af204f411edeb8468ec74c98d24d7a1, type: 3}
      propertyPath: manualColor.b
      value: 4.131186
      objectReference: {fileID: 0}
    - target: {fileID: 225749190879684627, guid: 4af204f411edeb8468ec74c98d24d7a1, type: 3}
      propertyPath: manualColor.g
      value: 3.5409095
      objectReference: {fileID: 0}
    - target: {fileID: 225749190879684627, guid: 4af204f411edeb8468ec74c98d24d7a1, type: 3}
      propertyPath: manualColor.r
      value: 0
      objectReference: {fileID: 0}
    - target: {fileID: 335725757620220547, guid: 4af204f411edeb8468ec74c98d24d7a1, type: 3}
      propertyPath: m_LocalScale.x
      value: 1
      objectReference: {fileID: 0}
    - target: {fileID: 335725757620220547, guid: 4af204f411edeb8468ec74c98d24d7a1, type: 3}
      propertyPath: m_LocalScale.y
      value: 1
      objectReference: {fileID: 0}
    - target: {fileID: 335725757620220547, guid: 4af204f411edeb8468ec74c98d24d7a1, type: 3}
      propertyPath: m_LocalScale.z
      value: 1
      objectReference: {fileID: 0}
    - target: {fileID: 358204263349226054, guid: 4af204f411edeb8468ec74c98d24d7a1, type: 3}
      propertyPath: m_Layer
      value: 16
      objectReference: {fileID: 0}
    - target: {fileID: 473470319095775727, guid: 4af204f411edeb8468ec74c98d24d7a1, type: 3}
      propertyPath: m_Layer
      value: 16
      objectReference: {fileID: 0}
    - target: {fileID: 473470319095775727, guid: 4af204f411edeb8468ec74c98d24d7a1, type: 3}
      propertyPath: m_IsActive
      value: 0
      objectReference: {fileID: 0}
    - target: {fileID: 610703412806031094, guid: 4af204f411edeb8468ec74c98d24d7a1, type: 3}
      propertyPath: m_Layer
      value: 16
      objectReference: {fileID: 0}
    - target: {fileID: 610703412806031094, guid: 4af204f411edeb8468ec74c98d24d7a1, type: 3}
      propertyPath: m_IsActive
      value: 0
      objectReference: {fileID: 0}
    - target: {fileID: 1144877892645595193, guid: 4af204f411edeb8468ec74c98d24d7a1, type: 3}
      propertyPath: m_Layer
      value: 16
      objectReference: {fileID: 0}
    - target: {fileID: 2975832303009151027, guid: 4af204f411edeb8468ec74c98d24d7a1, type: 3}
      propertyPath: m_Layer
      value: 16
      objectReference: {fileID: 0}
    - target: {fileID: 4537853435042859510, guid: 4af204f411edeb8468ec74c98d24d7a1, type: 3}
      propertyPath: m_Layer
      value: 16
      objectReference: {fileID: 0}
    - target: {fileID: 8751186856404104165, guid: 4af204f411edeb8468ec74c98d24d7a1, type: 3}
      propertyPath: m_Layer
      value: 16
      objectReference: {fileID: 0}
    m_RemovedComponents:
    - {fileID: 225749190879684624, guid: 4af204f411edeb8468ec74c98d24d7a1, type: 3}
  m_SourcePrefab: {fileID: 100100000, guid: 4af204f411edeb8468ec74c98d24d7a1, type: 3}
