%YAML 1.1
%TAG !u! tag:unity3d.com,2011:
--- !u!1001 &4348611515317143495
PrefabInstance:
  m_ObjectHideFlags: 0
  serializedVersion: 2
  m_Modification:
    m_TransformParent: {fileID: 4757420889854394159}
    m_Modifications:
    - target: {fileID: -8679921383154817045, guid: 8b239113c5bf4c043b399cd0166f281e, type: 3}
      propertyPath: m_RootOrder
      value: 1
      objectReference: {fileID: 0}
    - target: {fileID: -8679921383154817045, guid: 8b239113c5bf4c043b399cd0166f281e, type: 3}
      propertyPath: m_LocalPosition.x
      value: 0
      objectReference: {fileID: 0}
    - target: {fileID: -8679921383154817045, guid: 8b239113c5bf4c043b399cd0166f281e, type: 3}
      propertyPath: m_LocalPosition.y
      value: -0.465
      objectReference: {fileID: 0}
    - target: {fileID: -8679921383154817045, guid: 8b239113c5bf4c043b399cd0166f281e, type: 3}
      propertyPath: m_LocalPosition.z
      value: 0.017
      objectReference: {fileID: 0}
    - target: {fileID: -8679921383154817045, guid: 8b239113c5bf4c043b399cd0166f281e, type: 3}
      propertyPath: m_LocalRotation.w
      value: 0
      objectReference: {fileID: 0}
    - target: {fileID: -8679921383154817045, guid: 8b239113c5bf4c043b399cd0166f281e, type: 3}
      propertyPath: m_LocalRotation.x
      value: 0
      objectReference: {fileID: 0}
    - target: {fileID: -8679921383154817045, guid: 8b239113c5bf4c043b399cd0166f281e, type: 3}
      propertyPath: m_LocalRotation.y
      value: 1
      objectReference: {fileID: 0}
    - target: {fileID: -8679921383154817045, guid: 8b239113c5bf4c043b399cd0166f281e, type: 3}
      propertyPath: m_LocalRotation.z
      value: 0
      objectReference: {fileID: 0}
    - target: {fileID: -8679921383154817045, guid: 8b239113c5bf4c043b399cd0166f281e, type: 3}
      propertyPath: m_LocalEulerAnglesHint.x
      value: 0
      objectReference: {fileID: 0}
    - target: {fileID: -8679921383154817045, guid: 8b239113c5bf4c043b399cd0166f281e, type: 3}
      propertyPath: m_LocalEulerAnglesHint.y
      value: 180
      objectReference: {fileID: 0}
    - target: {fileID: -8679921383154817045, guid: 8b239113c5bf4c043b399cd0166f281e, type: 3}
      propertyPath: m_LocalEulerAnglesHint.z
      value: 0
      objectReference: {fileID: 0}
    - target: {fileID: -2279857700305240816, guid: 8b239113c5bf4c043b399cd0166f281e, type: 3}
      propertyPath: m_CastShadows
      value: 0
      objectReference: {fileID: 0}
    - target: {fileID: -2279857700305240816, guid: 8b239113c5bf4c043b399cd0166f281e, type: 3}
      propertyPath: m_Materials.Array.data[0]
      value: 
      objectReference: {fileID: 2100000, guid: 2c2566142d29a004b95d5cbb9123441e, type: 2}
    - target: {fileID: 919132149155446097, guid: 8b239113c5bf4c043b399cd0166f281e, type: 3}
      propertyPath: m_Name
      value: chicken
      objectReference: {fileID: 0}
    - target: {fileID: 5866666021909216657, guid: 8b239113c5bf4c043b399cd0166f281e, type: 3}
      propertyPath: m_Controller
      value: 
      objectReference: {fileID: 9100000, guid: bf7c91c7cc1a98d4591e509efcdbf4fa, type: 2}
    - target: {fileID: 6578789635713599336, guid: 8b239113c5bf4c043b399cd0166f281e, type: 3}
      propertyPath: m_CastShadows
      value: 0
      objectReference: {fileID: 0}
    - target: {fileID: 6578789635713599336, guid: 8b239113c5bf4c043b399cd0166f281e, type: 3}
      propertyPath: m_Materials.Array.size
      value: 2
      objectReference: {fileID: 0}
    - target: {fileID: 6578789635713599336, guid: 8b239113c5bf4c043b399cd0166f281e, type: 3}
      propertyPath: m_Materials.Array.data[0]
      value: 
      objectReference: {fileID: 2100000, guid: e5415b42fe76a2543b8e75728528284b, type: 2}
    - target: {fileID: 6578789635713599336, guid: 8b239113c5bf4c043b399cd0166f281e, type: 3}
      propertyPath: m_Materials.Array.data[1]
      value: 
      objectReference: {fileID: 2100000, guid: 8983222583d6a8f4d89db70e397ea8b2, type: 2}
    m_RemovedComponents: []
  m_SourcePrefab: {fileID: 100100000, guid: 8b239113c5bf4c043b399cd0166f281e, type: 3}
--- !u!1001 &8927568956294924643
PrefabInstance:
  m_ObjectHideFlags: 0
  serializedVersion: 2
  m_Modification:
    m_TransformParent: {fileID: 0}
    m_Modifications:
    - target: {fileID: 744421068727176424, guid: f4c74ac8725166e4ca48b9abddc39140, type: 3}
      propertyPath: OnTriggerEnterEvent.m_PersistentCalls.m_Calls.Array.size
      value: 7
      objectReference: {fileID: 0}
    - target: {fileID: 744421068727176424, guid: f4c74ac8725166e4ca48b9abddc39140, type: 3}
      propertyPath: OnTriggerEnterEvent.m_PersistentCalls.m_Calls.Array.data[6].m_Mode
      value: 1
      objectReference: {fileID: 0}
    - target: {fileID: 744421068727176424, guid: f4c74ac8725166e4ca48b9abddc39140, type: 3}
      propertyPath: OnTriggerEnterEvent.m_PersistentCalls.m_Calls.Array.data[6].m_Target
      value: 
      objectReference: {fileID: 11400000, guid: 41b9240e8855ee84a8a60054121dfb61, type: 2}
    - target: {fileID: 744421068727176424, guid: f4c74ac8725166e4ca48b9abddc39140, type: 3}
      propertyPath: OnTriggerEnterEvent.m_PersistentCalls.m_Calls.Array.data[6].m_CallState
      value: 2
      objectReference: {fileID: 0}
    - target: {fileID: 744421068727176424, guid: f4c74ac8725166e4ca48b9abddc39140, type: 3}
      propertyPath: OnTriggerEnterEvent.m_PersistentCalls.m_Calls.Array.data[6].m_MethodName
      value: Progress
      objectReference: {fileID: 0}
    - target: {fileID: 744421068727176424, guid: f4c74ac8725166e4ca48b9abddc39140, type: 3}
      propertyPath: OnTriggerEnterEvent.m_PersistentCalls.m_Calls.Array.data[6].m_TargetAssemblyTypeName
      value: QuestObejctive, Assembly-CSharp
      objectReference: {fileID: 0}
    - target: {fileID: 744421068727176424, guid: f4c74ac8725166e4ca48b9abddc39140, type: 3}
      propertyPath: OnTriggerEnterEvent.m_PersistentCalls.m_Calls.Array.data[6].m_Arguments.m_ObjectArgumentAssemblyTypeName
      value: UnityEngine.Object, UnityEngine
      objectReference: {fileID: 0}
    - target: {fileID: 3879345803087258920, guid: f4c74ac8725166e4ca48b9abddc39140, type: 3}
      propertyPath: m_Name
      value: Intel Item
      objectReference: {fileID: 0}
    - target: {fileID: 4006472325041080260, guid: f4c74ac8725166e4ca48b9abddc39140, type: 3}
      propertyPath: m_RootOrder
      value: 0
      objectReference: {fileID: 0}
    - target: {fileID: 4006472325041080260, guid: f4c74ac8725166e4ca48b9abddc39140, type: 3}
      propertyPath: m_LocalPosition.x
      value: 0
      objectReference: {fileID: 0}
    - target: {fileID: 4006472325041080260, guid: f4c74ac8725166e4ca48b9abddc39140, type: 3}
      propertyPath: m_LocalPosition.y
      value: 1
      objectReference: {fileID: 0}
    - target: {fileID: 4006472325041080260, guid: f4c74ac8725166e4ca48b9abddc39140, type: 3}
      propertyPath: m_LocalPosition.z
      value: 0
      objectReference: {fileID: 0}
    - target: {fileID: 4006472325041080260, guid: f4c74ac8725166e4ca48b9abddc39140, type: 3}
      propertyPath: m_LocalRotation.w
      value: 1
      objectReference: {fileID: 0}
    - target: {fileID: 4006472325041080260, guid: f4c74ac8725166e4ca48b9abddc39140, type: 3}
      propertyPath: m_LocalRotation.x
      value: 0
      objectReference: {fileID: 0}
    - target: {fileID: 4006472325041080260, guid: f4c74ac8725166e4ca48b9abddc39140, type: 3}
      propertyPath: m_LocalRotation.y
      value: 0
      objectReference: {fileID: 0}
    - target: {fileID: 4006472325041080260, guid: f4c74ac8725166e4ca48b9abddc39140, type: 3}
      propertyPath: m_LocalRotation.z
      value: 0
      objectReference: {fileID: 0}
    - target: {fileID: 4006472325041080260, guid: f4c74ac8725166e4ca48b9abddc39140, type: 3}
      propertyPath: m_LocalEulerAnglesHint.x
      value: 0
      objectReference: {fileID: 0}
    - target: {fileID: 4006472325041080260, guid: f4c74ac8725166e4ca48b9abddc39140, type: 3}
      propertyPath: m_LocalEulerAnglesHint.y
      value: 0
      objectReference: {fileID: 0}
    - target: {fileID: 4006472325041080260, guid: f4c74ac8725166e4ca48b9abddc39140, type: 3}
      propertyPath: m_LocalEulerAnglesHint.z
      value: 0
      objectReference: {fileID: 0}
    - target: {fileID: 5609291179332094486, guid: f4c74ac8725166e4ca48b9abddc39140, type: 3}
      propertyPath: moveWithTransform
      value: 0
      objectReference: {fileID: 0}
    m_RemovedComponents: []
  m_SourcePrefab: {fileID: 100100000, guid: f4c74ac8725166e4ca48b9abddc39140, type: 3}
--- !u!4 &4757420889854394159 stripped
Transform:
  m_CorrespondingSourceObject: {fileID: 4170572663687263820, guid: f4c74ac8725166e4ca48b9abddc39140, type: 3}
  m_PrefabInstance: {fileID: 8927568956294924643}
  m_PrefabAsset: {fileID: 0}
