%YAML 1.1
%TAG !u! tag:unity3d.com,2011:
--- !u!114 &11400000
MonoBehaviour:
  m_ObjectHideFlags: 0
  m_CorrespondingSourceObject: {fileID: 0}
  m_PrefabInstance: {fileID: 0}
  m_PrefabAsset: {fileID: 0}
  m_GameObject: {fileID: 0}
  m_Enabled: 1
  m_EditorHideFlags: 0
  m_Script: {fileID: 11500000, guid: 5abef73dbe79cb74f9ef40e4fcdab039, type: 3}
  m_Name: BossDialogue - 2 - 9106
  m_EditorClassIdentifier: 
  actorLeft: {fileID: 7868325998132895038, guid: 98b5c51340e10ab448e176efb9454b40, type: 3}
  actorRight: {fileID: 3793792972587264726, guid: 4b4955f772c298c4e874de54e32df1a0, type: 3}
  position: 1
  characterName: T-Ramsay
  sentences:
  - Who's there?
