%YAML 1.1
%TAG !u! tag:unity3d.com,2011:
--- !u!114 &11400000
MonoBehaviour:
  m_ObjectHideFlags: 0
  m_CorrespondingSourceObject: {fileID: 0}
  m_PrefabInstance: {fileID: 0}
  m_PrefabAsset: {fileID: 0}
  m_GameObject: {fileID: 0}
  m_Enabled: 1
  m_EditorHideFlags: 0
  m_Script: {fileID: 11500000, guid: b7ca03040be6d2a42a9655a73c67081d, type: 3}
  m_Name: Tutorial 01 Welcome
  m_EditorClassIdentifier: 
  ObjectiveText: Welcome to the virtual samurai testing facility.
  RequiredCount: 1
  CurrentCount: 0
