%YAML 1.1
%TAG !u! tag:unity3d.com,2011:
--- !u!114 &11400000
MonoBehaviour:
  m_ObjectHideFlags: 0
  m_CorrespondingSourceObject: {fileID: 0}
  m_PrefabInstance: {fileID: 0}
  m_PrefabAsset: {fileID: 0}
  m_GameObject: {fileID: 0}
  m_Enabled: 1
  m_EditorHideFlags: 0
  m_Script: {fileID: 11500000, guid: da977ddd715e0974f80b49bbfd5ea3cd, type: 3}
  m_Name: GunImpact
  m_EditorClassIdentifier: 
  spatialBlend: 1
  sounds:
  - clip: {fileID: 8300000, guid: 69c3cd29165150844ab9e0fe984d9dde, type: 3}
    volumeReduction: 0
  mixer: {fileID: -7859223719810993456, guid: 28e53cf085e0fea4cae148328618f289, type: 2}
  pitch: 1
  minDistance: 4
