%YAML 1.1
%TAG !u! tag:unity3d.com,2011:
--- !u!114 &11400000
MonoBehaviour:
  m_ObjectHideFlags: 0
  m_CorrespondingSourceObject: {fileID: 0}
  m_PrefabInstance: {fileID: 0}
  m_PrefabAsset: {fileID: 0}
  m_GameObject: {fileID: 0}
  m_Enabled: 1
  m_EditorHideFlags: 0
  m_Script: {fileID: 11500000, guid: da977ddd715e0974f80b49bbfd5ea3cd, type: 3}
  m_Name: Sword Swing
  m_EditorClassIdentifier: 
  spatialBlend: 1
  sounds:
  - clip: {fileID: 8300000, guid: 641482022e65d08458cfc46d0da318cd, type: 3}
    volumeReduction: 0
  - clip: {fileID: 8300000, guid: d0d42bc8c98476646a7b88be93b1948f, type: 3}
    volumeReduction: 0
  - clip: {fileID: 8300000, guid: 02981d1f2ba873b468dcd08522e34ced, type: 3}
    volumeReduction: 0
  mixer: {fileID: 8699358924153052031, guid: 28e53cf085e0fea4cae148328618f289, type: 2}
  pitch: 1
  minDistance: 2
