%YAML 1.1
%TAG !u! tag:unity3d.com,2011:
--- !u!114 &11400000
MonoBehaviour:
  m_ObjectHideFlags: 0
  m_CorrespondingSourceObject: {fileID: 0}
  m_PrefabInstance: {fileID: 0}
  m_PrefabAsset: {fileID: 0}
  m_GameObject: {fileID: 0}
  m_Enabled: 1
  m_EditorHideFlags: 0
  m_Script: {fileID: 11500000, guid: da977ddd715e0974f80b49bbfd5ea3cd, type: 3}
  m_Name: WalkAsphalt
  m_EditorClassIdentifier: 
  spatialBlend: 1
  sounds:
  - clip: {fileID: 8300000, guid: d9a50401294cf994db997588f91d42e3, type: 3}
    volumeReduction: 0
  - clip: {fileID: 8300000, guid: d6ebde4a3ada7fb4cb40b4aee74b36d5, type: 3}
    volumeReduction: 0
  - clip: {fileID: 8300000, guid: 0b287ec04efddae49a2dc3b04bf01485, type: 3}
    volumeReduction: 0
  - clip: {fileID: 8300000, guid: 9be71da04af2bc54f86d0d71e776b4f6, type: 3}
    volumeReduction: 0
  - clip: {fileID: 8300000, guid: 6544c41040573c14bb7b76beab3138f9, type: 3}
    volumeReduction: 0
  - clip: {fileID: 8300000, guid: fe6f746272be5e34f90fdd09718d3782, type: 3}
    volumeReduction: 0
  mixer: {fileID: 163418109255390801, guid: 28e53cf085e0fea4cae148328618f289, type: 2}
  pitch: 1
  minDistance: 2
