%YAML 1.1
%TAG !u! tag:unity3d.com,2011:
--- !u!114 &11400000
MonoBehaviour:
  m_ObjectHideFlags: 0
  m_CorrespondingSourceObject: {fileID: 0}
  m_PrefabInstance: {fileID: 0}
  m_PrefabAsset: {fileID: 0}
  m_GameObject: {fileID: 0}
  m_Enabled: 1
  m_EditorHideFlags: 0
  m_Script: {fileID: 11500000, guid: da977ddd715e0974f80b49bbfd5ea3cd, type: 3}
  m_Name: BossWalk
  m_EditorClassIdentifier: 
  spatialBlend: 1
  sounds:
  - clip: {fileID: 8300000, guid: 10ebd910b57aef8498ce36b5ebe254b9, type: 3}
    volumeReduction: 0
  - clip: {fileID: 8300000, guid: 48678d4fe0ea3414a95d446ffb43324f, type: 3}
    volumeReduction: 0
  - clip: {fileID: 8300000, guid: 89432df69aa749b46b0a52f021cef143, type: 3}
    volumeReduction: 0
  - clip: {fileID: 8300000, guid: 3d7b528e461c79e4394a2cdb5ad85399, type: 3}
    volumeReduction: 0
  - clip: {fileID: 8300000, guid: 56ecfb35aeab7c74495b0f1000d34191, type: 3}
    volumeReduction: 0
  mixer: {fileID: -7785477908042959813, guid: 28e53cf085e0fea4cae148328618f289, type: 2}
  pitch: 1
  minDistance: 10
