%YAML 1.1
%TAG !u! tag:unity3d.com,2011:
--- !u!114 &11400000
MonoBehaviour:
  m_ObjectHideFlags: 0
  m_CorrespondingSourceObject: {fileID: 0}
  m_PrefabInstance: {fileID: 0}
  m_PrefabAsset: {fileID: 0}
  m_GameObject: {fileID: 0}
  m_Enabled: 1
  m_EditorHideFlags: 0
  m_Script: {fileID: 11500000, guid: da977ddd715e0974f80b49bbfd5ea3cd, type: 3}
  m_Name: LaserKakerlakeDeath
  m_EditorClassIdentifier: 
  spatialBlend: 1
  sounds:
  - clip: {fileID: 8300000, guid: 2b37a55f7db2f4d499e6d2424fa7fcc7, type: 3}
    volumeReduction: 0
  - clip: {fileID: 8300000, guid: 30c6f008ef6c48348b6536230ca2246c, type: 3}
    volumeReduction: 0
  mixer: {fileID: -2014740788059684756, guid: 28e53cf085e0fea4cae148328618f289, type: 2}
  pitch: 1
  minDistance: 2
