%YAML 1.1
%TAG !u! tag:unity3d.com,2011:
--- !u!114 &11400000
MonoBehaviour:
  m_ObjectHideFlags: 0
  m_CorrespondingSourceObject: {fileID: 0}
  m_PrefabInstance: {fileID: 0}
  m_PrefabAsset: {fileID: 0}
  m_GameObject: {fileID: 0}
  m_Enabled: 1
  m_EditorHideFlags: 0
  m_Script: {fileID: 11500000, guid: 5abef73dbe79cb74f9ef40e4fcdab039, type: 3}
  m_Name: TrapEnter - 1 - 415
  m_EditorClassIdentifier: 
  actorLeft: {fileID: 7868325998132895038, guid: 98b5c51340e10ab448e176efb9454b40, type: 3}
  actorRight: {fileID: 1805000260352757727, guid: 0ab1733e946c9d04ea702e56486db7a3, type: 3}
  position: 0
  characterName: Chris P. Chicken
  sentences:
  - its a trap!
